\documentclass{standalone}
\usepackage{tikz}
\usepackage{pgfplots}
\begin{document}
    \begin{tikzpicture}[scale=1.0]
        \begin{axis}[
        scale only axis=true,
        enlargelimits=0.05,
        outer axis line style={draw=none},
        xlabel = $x$,
        ylabel = {$\textrm{rect}(x)$},
        width=8cm,
        height=4cm,
        xtick={-1,-0.5,0,0.5,1},
        ytick={0,0.5,1},
        tick style={
        grid=major,
        },
        ]
            \addplot [
            domain=-0.5:0.5,
            samples=100,
            color=black,
            very thick
            ]
            {1};
            \draw[fill=black](axis cs:-0.5,1) circle[radius=2];
            \draw[fill=black](axis cs:0.5,1) circle[radius=2];
            \addplot [
            domain=-1:-0.5,
            samples=100,
            color=black,
            very thick
            ]
            {0};
            \addplot [
            domain=0.5:1,
            samples=100,
            color=black,
            very thick
            ]
            {0};
            \draw[thick,fill=white](axis cs:-0.5,0) circle[radius=2];
            \draw[thick,fill=white](axis cs:0.5,0) circle[radius=2];
        \end{axis}
    \end{tikzpicture}
\end{document}
